{
    "0.0": 1,
    "32.0": 4,
    "33.0": 4,
    "34.0": 7,
    "35.0": 6,
    "36.0": 25,
    "37.0": 31,
    "38.0": 37,
    "39.0": 26,
    "40.0": 7,
    "41.0": 15,
    "42.0": 12,
    "43.0": 29,
    "44.0": 53,
    "45.0": 110,
    "46.0": 105,
    "47.0": 52,
    "48.0": 6,
    "49.0": 4,
    "50.0": 3,
    "51.0": 1,
    "52.0": 4,
    "53.0": 3,
    "54.0": 1,
    "55.0": 1,
    "56.0": 1,
    "Mean Hum": 43.054745
}
